<svg width="19" height="18" viewBox="0 0 19 18" fill="none" xmlns="http://www.w3.org/2000/svg">
<path d="M15.121 11.1971C14.8749 11.4349 14.7619 11.7788 14.8179 12.116L15.6624 16.7768C15.7336 17.1718 15.5664 17.5716 15.2349 17.7999C14.9101 18.0367 14.4779 18.0651 14.1236 17.8756L9.91659 15.6874C9.77031 15.6097 9.60788 15.568 9.44165 15.5633H9.18423C9.09494 15.5765 9.00756 15.605 8.92777 15.6485L4.71982 17.8472C4.51179 17.9514 4.27622 17.9884 4.0454 17.9514C3.48308 17.8453 3.10788 17.3111 3.20001 16.7474L4.0454 12.0867C4.10145 11.7466 3.98841 11.4008 3.74239 11.1593L0.312391 7.84369C0.0255287 7.56613 -0.0742083 7.14931 0.0568746 6.77323C0.184158 6.3981 0.509016 6.12433 0.901314 6.06275L5.6222 5.37975C5.98125 5.3428 6.29661 5.12492 6.45809 4.80284L8.53832 0.549437C8.58771 0.454706 8.65135 0.367554 8.72829 0.293665L8.81378 0.227353C8.85842 0.178093 8.90972 0.137359 8.96671 0.104204L9.07025 0.0663114L9.23173 0H9.63162C9.98878 0.0369449 10.3032 0.250089 10.4675 0.568383L12.5753 4.80284C12.7273 5.11261 13.0227 5.32764 13.3637 5.37975L18.0846 6.06275C18.4835 6.11959 18.8169 6.39431 18.949 6.77323C19.0734 7.1531 18.9661 7.56991 18.6735 7.84369L15.121 11.1971Z" fill="#FFC90A"/>
</svg>
